{
  "page": 1,
  "pageSize": 3,
  "totalPages": 4,
  "totalItems": 10,
  "items": [
    {
      "id": 1,
      "text": "User registration",
      "size": "2",
      "color": "grey",
      "ready": false,
      "blocked": false,
      "phase": {
        "id": 87567,
        "name": "Development"
      },
      "phaseIndex": 0,
      "creator": {
        "id": 19059,
        "name": "Adam"
      },
      "owner": {
        "id": 19059,
        "name": "Adam"
      }
    },
    {
      "id": 2,
      "text": "User sign in",
      "size": "2",
      "color": "grey",
      "ready": false,
      "blocked": false,
      "phase": {
        "id": 87566,
        "name": "Ready"
      },
      "phaseIndex": 0,
      "creator": {
        "id": 19059,
        "name": "Adam"
      },
      "owner": {
        "id": 19059,
        "name": "Adam"
      }
    },
    {
      "id": 3,
      "text": "Create a post",
      "size": "3",
      "color": "grey",
      "ready": false,
      "blocked": false,
      "phase": {
        "id": 87565,
        "name": "Backlog"
      },
      "phaseIndex": 0,
      "creator": {
        "id": 19059,
        "name": "Adam"
      },
      "owner": {
        "id": 19059,
        "name": "Adam"
      }
    }
  ]
}
